-target:library
-out:"Library/Bee/artifacts/1300b0aPDevDbg.dag/Assembly-CSharp.dll"
-refout:"Library/Bee/artifacts/1300b0aPDevDbg.dag/Assembly-CSharp.ref.dll"
-define:UNITY_2021_3_16
-define:UNITY_2021_3
-define:UNITY_2021
-define:UNITY_5_3_OR_NEWER
-define:UNITY_5_4_OR_NEWER
-define:UNITY_5_5_OR_NEWER
-define:UNITY_5_6_OR_NEWER
-define:UNITY_2017_1_OR_NEWER
-define:UNITY_2017_2_OR_NEWER
-define:UNITY_2017_3_OR_NEWER
-define:UNITY_2017_4_OR_NEWER
-define:UNITY_2018_1_OR_NEWER
-define:UNITY_2018_2_OR_NEWER
-define:UNITY_2018_3_OR_NEWER
-define:UNITY_2018_4_OR_NEWER
-define:UNITY_2019_1_OR_NEWER
-define:UNITY_2019_2_OR_NEWER
-define:UNITY_2019_3_OR_NEWER
-define:UNITY_2019_4_OR_NEWER
-define:UNITY_2020_1_OR_NEWER
-define:UNITY_2020_2_OR_NEWER
-define:UNITY_2020_3_OR_NEWER
-define:UNITY_2021_1_OR_NEWER
-define:UNITY_2021_2_OR_NEWER
-define:UNITY_2021_3_OR_NEWER
-define:ENABLE_AR
-define:ENABLE_AUDIO
-define:ENABLE_CACHING
-define:ENABLE_CLOTH
-define:ENABLE_EVENT_QUEUE
-define:ENABLE_MICROPHONE
-define:ENABLE_MULTIPLE_DISPLAYS
-define:ENABLE_PHYSICS
-define:ENABLE_TEXTURE_STREAMING
-define:ENABLE_UNET
-define:ENABLE_LZMA
-define:ENABLE_UNITYEVENTS
-define:ENABLE_VR
-define:ENABLE_WEBCAM
-define:ENABLE_UNITYWEBREQUEST
-define:ENABLE_WWW
-define:ENABLE_CLOUD_SERVICES
-define:ENABLE_CLOUD_SERVICES_COLLAB
-define:ENABLE_CLOUD_SERVICES_COLLAB_SOFTLOCKS
-define:ENABLE_CLOUD_SERVICES_ADS
-define:ENABLE_CLOUD_SERVICES_USE_WEBREQUEST
-define:ENABLE_CLOUD_SERVICES_CRASH_REPORTING
-define:ENABLE_CLOUD_SERVICES_NATIVE_CRASH_REPORTING
-define:ENABLE_CLOUD_SERVICES_PURCHASING
-define:ENABLE_CLOUD_SERVICES_ANALYTICS
-define:ENABLE_CLOUD_SERVICES_UNET
-define:ENABLE_CLOUD_SERVICES_BUILD
-define:ENABLE_CLOUD_LICENSE
-define:ENABLE_EDITOR_HUB_LICENSE
-define:ENABLE_WEBSOCKET_CLIENT
-define:ENABLE_DIRECTOR_AUDIO
-define:ENABLE_DIRECTOR_TEXTURE
-define:ENABLE_MANAGED_JOBS
-define:ENABLE_MANAGED_TRANSFORM_JOBS
-define:ENABLE_MANAGED_ANIMATION_JOBS
-define:ENABLE_MANAGED_AUDIO_JOBS
-define:ENABLE_RUNTIME_PERMISSIONS
-define:ENABLE_ENGINE_CODE_STRIPPING
-define:ENABLE_ONSCREEN_KEYBOARD
-define:ENABLE_MANAGED_UNITYTLS
-define:INCLUDE_DYNAMIC_GI
-define:ENABLE_SCRIPTING_GC_WBARRIERS
-define:PLATFORM_SUPPORTS_MONO
-define:ENABLE_VIDEO
-define:ENABLE_ACCELERATOR_CLIENT_DEBUGGING
-define:PLATFORM_ANDROID
-define:TEXTCORE_1_0_OR_NEWER
-define:UNITY_ANDROID
-define:UNITY_ANDROID_API
-define:ENABLE_EGL
-define:ENABLE_NETWORK
-define:ENABLE_RUNTIME_GI
-define:ENABLE_CRUNCH_TEXTURE_COMPRESSION
-define:UNITY_CAN_SHOW_SPLASH_SCREEN
-define:UNITY_HAS_GOOGLEVR
-define:UNITY_HAS_TANGO
-define:ENABLE_SPATIALTRACKING
-define:ENABLE_ETC_COMPRESSION
-define:PLATFORM_EXTENDS_VULKAN_DEVICE
-define:PLATFORM_HAS_MULTIPLE_SWAPCHAINS
-define:UNITY_ANDROID_SUPPORTS_SHADOWFILES
-define:PLATFORM_UPDATES_TIME_OUTSIDE_OF_PLAYER_LOOP
-define:ENABLE_UNITYADS_RUNTIME
-define:UNITY_UNITYADS_API
-define:ENABLE_IL2CPP
-define:NET_STANDARD_2_0
-define:NET_STANDARD
-define:NET_STANDARD_2_1
-define:NETSTANDARD
-define:NETSTANDARD2_1
-define:DEVELOPMENT_BUILD
-define:ENABLE_PROFILER
-define:DEBUG
-define:TRACE
-define:UNITY_ASSERTIONS
-define:ENABLE_CUSTOM_RENDER_TEXTURE
-define:ENABLE_DIRECTOR
-define:ENABLE_LOCALIZATION
-define:ENABLE_SPRITES
-define:ENABLE_TERRAIN
-define:ENABLE_TILEMAP
-define:ENABLE_TIMELINE
-define:ENABLE_INPUT_SYSTEM
-define:ENABLE_LEGACY_INPUT_MANAGER
-define:TEXTCORE_FONT_ENGINE_1_5_OR_NEWER
-define:UNITY_POST_PROCESSING_STACK_V2
-define:CSHARP_7_OR_LATER
-define:CSHARP_7_3_OR_NEWER
-r:"D:/Prajects/AR and VR/AR and VR/Stomo/Stomo/Stamo/Library/PackageCache/com.unity.nuget.newtonsoft-json@3.0.2/Runtime/AOT/Newtonsoft.Json.dll"
-r:"D:/Prajects/AR and VR/AR and VR/Stomo/Stomo/Stamo/Library/PackageCache/com.unity.visualscripting@1.7.8/Runtime/VisualScripting.Flow/Dependencies/NCalc/Unity.VisualScripting.Antlr3.Runtime.dll"
-r:"D:/Unity/Unity Hub/2021.3.16f1/Editor/Data/NetStandard/compat/2.1.0/shims/netfx/mscorlib.dll"
-r:"D:/Unity/Unity Hub/2021.3.16f1/Editor/Data/NetStandard/compat/2.1.0/shims/netfx/System.ComponentModel.Composition.dll"
-r:"D:/Unity/Unity Hub/2021.3.16f1/Editor/Data/NetStandard/compat/2.1.0/shims/netfx/System.Core.dll"
-r:"D:/Unity/Unity Hub/2021.3.16f1/Editor/Data/NetStandard/compat/2.1.0/shims/netfx/System.Data.dll"
-r:"D:/Unity/Unity Hub/2021.3.16f1/Editor/Data/NetStandard/compat/2.1.0/shims/netfx/System.dll"
-r:"D:/Unity/Unity Hub/2021.3.16f1/Editor/Data/NetStandard/compat/2.1.0/shims/netfx/System.Drawing.dll"
-r:"D:/Unity/Unity Hub/2021.3.16f1/Editor/Data/NetStandard/compat/2.1.0/shims/netfx/System.IO.Compression.FileSystem.dll"
-r:"D:/Unity/Unity Hub/2021.3.16f1/Editor/Data/NetStandard/compat/2.1.0/shims/netfx/System.Net.dll"
-r:"D:/Unity/Unity Hub/2021.3.16f1/Editor/Data/NetStandard/compat/2.1.0/shims/netfx/System.Numerics.dll"
-r:"D:/Unity/Unity Hub/2021.3.16f1/Editor/Data/NetStandard/compat/2.1.0/shims/netfx/System.Runtime.Serialization.dll"
-r:"D:/Unity/Unity Hub/2021.3.16f1/Editor/Data/NetStandard/compat/2.1.0/shims/netfx/System.ServiceModel.Web.dll"
-r:"D:/Unity/Unity Hub/2021.3.16f1/Editor/Data/NetStandard/compat/2.1.0/shims/netfx/System.Transactions.dll"
-r:"D:/Unity/Unity Hub/2021.3.16f1/Editor/Data/NetStandard/compat/2.1.0/shims/netfx/System.Web.dll"
-r:"D:/Unity/Unity Hub/2021.3.16f1/Editor/Data/NetStandard/compat/2.1.0/shims/netfx/System.Windows.dll"
-r:"D:/Unity/Unity Hub/2021.3.16f1/Editor/Data/NetStandard/compat/2.1.0/shims/netfx/System.Xml.dll"
-r:"D:/Unity/Unity Hub/2021.3.16f1/Editor/Data/NetStandard/compat/2.1.0/shims/netfx/System.Xml.Linq.dll"
-r:"D:/Unity/Unity Hub/2021.3.16f1/Editor/Data/NetStandard/compat/2.1.0/shims/netfx/System.Xml.Serialization.dll"
-r:"D:/Unity/Unity Hub/2021.3.16f1/Editor/Data/NetStandard/compat/2.1.0/shims/netstandard/Microsoft.Win32.Primitives.dll"
-r:"D:/Unity/Unity Hub/2021.3.16f1/Editor/Data/NetStandard/compat/2.1.0/shims/netstandard/System.AppContext.dll"
-r:"D:/Unity/Unity Hub/2021.3.16f1/Editor/Data/NetStandard/compat/2.1.0/shims/netstandard/System.Buffers.dll"
-r:"D:/Unity/Unity Hub/2021.3.16f1/Editor/Data/NetStandard/compat/2.1.0/shims/netstandard/System.Collections.Concurrent.dll"
-r:"D:/Unity/Unity Hub/2021.3.16f1/Editor/Data/NetStandard/compat/2.1.0/shims/netstandard/System.Collections.dll"
-r:"D:/Unity/Unity Hub/2021.3.16f1/Editor/Data/NetStandard/compat/2.1.0/shims/netstandard/System.Collections.NonGeneric.dll"
-r:"D:/Unity/Unity Hub/2021.3.16f1/Editor/Data/NetStandard/compat/2.1.0/shims/netstandard/System.Collections.Specialized.dll"
-r:"D:/Unity/Unity Hub/2021.3.16f1/Editor/Data/NetStandard/compat/2.1.0/shims/netstandard/System.ComponentModel.dll"
-r:"D:/Unity/Unity Hub/2021.3.16f1/Editor/Data/NetStandard/compat/2.1.0/shims/netstandard/System.ComponentModel.EventBasedAsync.dll"
-r:"D:/Unity/Unity Hub/2021.3.16f1/Editor/Data/NetStandard/compat/2.1.0/shims/netstandard/System.ComponentModel.Primitives.dll"
-r:"D:/Unity/Unity Hub/2021.3.16f1/Editor/Data/NetStandard/compat/2.1.0/shims/netstandard/System.ComponentModel.TypeConverter.dll"
-r:"D:/Unity/Unity Hub/2021.3.16f1/Editor/Data/NetStandard/compat/2.1.0/shims/netstandard/System.Console.dll"
-r:"D:/Unity/Unity Hub/2021.3.16f1/Editor/Data/NetStandard/compat/2.1.0/shims/netstandard/System.Data.Common.dll"
-r:"D:/Unity/Unity Hub/2021.3.16f1/Editor/Data/NetStandard/compat/2.1.0/shims/netstandard/System.Diagnostics.Contracts.dll"
-r:"D:/Unity/Unity Hub/2021.3.16f1/Editor/Data/NetStandard/compat/2.1.0/shims/netstandard/System.Diagnostics.Debug.dll"
-r:"D:/Unity/Unity Hub/2021.3.16f1/Editor/Data/NetStandard/compat/2.1.0/shims/netstandard/System.Diagnostics.FileVersionInfo.dll"
-r:"D:/Unity/Unity Hub/2021.3.16f1/Editor/Data/NetStandard/compat/2.1.0/shims/netstandard/System.Diagnostics.Process.dll"
-r:"D:/Unity/Unity Hub/2021.3.16f1/Editor/Data/NetStandard/compat/2.1.0/shims/netstandard/System.Diagnostics.StackTrace.dll"
-r:"D:/Unity/Unity Hub/2021.3.16f1/Editor/Data/NetStandard/compat/2.1.0/shims/netstandard/System.Diagnostics.TextWriterTraceListener.dll"
-r:"D:/Unity/Unity Hub/2021.3.16f1/Editor/Data/NetStandard/compat/2.1.0/shims/netstandard/System.Diagnostics.Tools.dll"
-r:"D:/Unity/Unity Hub/2021.3.16f1/Editor/Data/NetStandard/compat/2.1.0/shims/netstandard/System.Diagnostics.TraceSource.dll"
-r:"D:/Unity/Unity Hub/2021.3.16f1/Editor/Data/NetStandard/compat/2.1.0/shims/netstandard/System.Diagnostics.Tracing.dll"
-r:"D:/Unity/Unity Hub/2021.3.16f1/Editor/Data/NetStandard/compat/2.1.0/shims/netstandard/System.Drawing.Primitives.dll"
-r:"D:/Unity/Unity Hub/2021.3.16f1/Editor/Data/NetStandard/compat/2.1.0/shims/netstandard/System.Dynamic.Runtime.dll"
-r:"D:/Unity/Unity Hub/2021.3.16f1/Editor/Data/NetStandard/compat/2.1.0/shims/netstandard/System.Globalization.Calendars.dll"
-r:"D:/Unity/Unity Hub/2021.3.16f1/Editor/Data/NetStandard/compat/2.1.0/shims/netstandard/System.Globalization.dll"
-r:"D:/Unity/Unity Hub/2021.3.16f1/Editor/Data/NetStandard/compat/2.1.0/shims/netstandard/System.Globalization.Extensions.dll"
-r:"D:/Unity/Unity Hub/2021.3.16f1/Editor/Data/NetStandard/compat/2.1.0/shims/netstandard/System.IO.Compression.dll"
-r:"D:/Unity/Unity Hub/2021.3.16f1/Editor/Data/NetStandard/compat/2.1.0/shims/netstandard/System.IO.Compression.ZipFile.dll"
-r:"D:/Unity/Unity Hub/2021.3.16f1/Editor/Data/NetStandard/compat/2.1.0/shims/netstandard/System.IO.dll"
-r:"D:/Unity/Unity Hub/2021.3.16f1/Editor/Data/NetStandard/compat/2.1.0/shims/netstandard/System.IO.FileSystem.dll"
-r:"D:/Unity/Unity Hub/2021.3.16f1/Editor/Data/NetStandard/compat/2.1.0/shims/netstandard/System.IO.FileSystem.DriveInfo.dll"
-r:"D:/Unity/Unity Hub/2021.3.16f1/Editor/Data/NetStandard/compat/2.1.0/shims/netstandard/System.IO.FileSystem.Primitives.dll"
-r:"D:/Unity/Unity Hub/2021.3.16f1/Editor/Data/NetStandard/compat/2.1.0/shims/netstandard/System.IO.FileSystem.Watcher.dll"
-r:"D:/Unity/Unity Hub/2021.3.16f1/Editor/Data/NetStandard/compat/2.1.0/shims/netstandard/System.IO.IsolatedStorage.dll"
-r:"D:/Unity/Unity Hub/2021.3.16f1/Editor/Data/NetStandard/compat/2.1.0/shims/netstandard/System.IO.MemoryMappedFiles.dll"
-r:"D:/Unity/Unity Hub/2021.3.16f1/Editor/Data/NetStandard/compat/2.1.0/shims/netstandard/System.IO.Pipes.dll"
-r:"D:/Unity/Unity Hub/2021.3.16f1/Editor/Data/NetStandard/compat/2.1.0/shims/netstandard/System.IO.UnmanagedMemoryStream.dll"
-r:"D:/Unity/Unity Hub/2021.3.16f1/Editor/Data/NetStandard/compat/2.1.0/shims/netstandard/System.Linq.dll"
-r:"D:/Unity/Unity Hub/2021.3.16f1/Editor/Data/NetStandard/compat/2.1.0/shims/netstandard/System.Linq.Expressions.dll"
-r:"D:/Unity/Unity Hub/2021.3.16f1/Editor/Data/NetStandard/compat/2.1.0/shims/netstandard/System.Linq.Parallel.dll"
-r:"D:/Unity/Unity Hub/2021.3.16f1/Editor/Data/NetStandard/compat/2.1.0/shims/netstandard/System.Linq.Queryable.dll"
-r:"D:/Unity/Unity Hub/2021.3.16f1/Editor/Data/NetStandard/compat/2.1.0/shims/netstandard/System.Memory.dll"
-r:"D:/Unity/Unity Hub/2021.3.16f1/Editor/Data/NetStandard/compat/2.1.0/shims/netstandard/System.Net.Http.dll"
-r:"D:/Unity/Unity Hub/2021.3.16f1/Editor/Data/NetStandard/compat/2.1.0/shims/netstandard/System.Net.NameResolution.dll"
-r:"D:/Unity/Unity Hub/2021.3.16f1/Editor/Data/NetStandard/compat/2.1.0/shims/netstandard/System.Net.NetworkInformation.dll"
-r:"D:/Unity/Unity Hub/2021.3.16f1/Editor/Data/NetStandard/compat/2.1.0/shims/netstandard/System.Net.Ping.dll"
-r:"D:/Unity/Unity Hub/2021.3.16f1/Editor/Data/NetStandard/compat/2.1.0/shims/netstandard/System.Net.Primitives.dll"
-r:"D:/Unity/Unity Hub/2021.3.16f1/Editor/Data/NetStandard/compat/2.1.0/shims/netstandard/System.Net.Requests.dll"
-r:"D:/Unity/Unity Hub/2021.3.16f1/Editor/Data/NetStandard/compat/2.1.0/shims/netstandard/System.Net.Security.dll"
-r:"D:/Unity/Unity Hub/2021.3.16f1/Editor/Data/NetStandard/compat/2.1.0/shims/netstandard/System.Net.Sockets.dll"
-r:"D:/Unity/Unity Hub/2021.3.16f1/Editor/Data/NetStandard/compat/2.1.0/shims/netstandard/System.Net.WebHeaderCollection.dll"
-r:"D:/Unity/Unity Hub/2021.3.16f1/Editor/Data/NetStandard/compat/2.1.0/shims/netstandard/System.Net.WebSockets.Client.dll"
-r:"D:/Unity/Unity Hub/2021.3.16f1/Editor/Data/NetStandard/compat/2.1.0/shims/netstandard/System.Net.WebSockets.dll"
-r:"D:/Unity/Unity Hub/2021.3.16f1/Editor/Data/NetStandard/compat/2.1.0/shims/netstandard/System.Numerics.Vectors.dll"
-r:"D:/Unity/Unity Hub/2021.3.16f1/Editor/Data/NetStandard/compat/2.1.0/shims/netstandard/System.ObjectModel.dll"
-r:"D:/Unity/Unity Hub/2021.3.16f1/Editor/Data/NetStandard/compat/2.1.0/shims/netstandard/System.Reflection.DispatchProxy.dll"
-r:"D:/Unity/Unity Hub/2021.3.16f1/Editor/Data/NetStandard/compat/2.1.0/shims/netstandard/System.Reflection.dll"
-r:"D:/Unity/Unity Hub/2021.3.16f1/Editor/Data/NetStandard/compat/2.1.0/shims/netstandard/System.Reflection.Emit.dll"
-r:"D:/Unity/Unity Hub/2021.3.16f1/Editor/Data/NetStandard/compat/2.1.0/shims/netstandard/System.Reflection.Emit.ILGeneration.dll"
-r:"D:/Unity/Unity Hub/2021.3.16f1/Editor/Data/NetStandard/compat/2.1.0/shims/netstandard/System.Reflection.Emit.Lightweight.dll"
-r:"D:/Unity/Unity Hub/2021.3.16f1/Editor/Data/NetStandard/compat/2.1.0/shims/netstandard/System.Reflection.Extensions.dll"
-r:"D:/Unity/Unity Hub/2021.3.16f1/Editor/Data/NetStandard/compat/2.1.0/shims/netstandard/System.Reflection.Primitives.dll"
-r:"D:/Unity/Unity Hub/2021.3.16f1/Editor/Data/NetStandard/compat/2.1.0/shims/netstandard/System.Resources.Reader.dll"
-r:"D:/Unity/Unity Hub/2021.3.16f1/Editor/Data/NetStandard/compat/2.1.0/shims/netstandard/System.Resources.ResourceManager.dll"
-r:"D:/Unity/Unity Hub/2021.3.16f1/Editor/Data/NetStandard/compat/2.1.0/shims/netstandard/System.Resources.Writer.dll"
-r:"D:/Unity/Unity Hub/2021.3.16f1/Editor/Data/NetStandard/compat/2.1.0/shims/netstandard/System.Runtime.CompilerServices.VisualC.dll"
-r:"D:/Unity/Unity Hub/2021.3.16f1/Editor/Data/NetStandard/compat/2.1.0/shims/netstandard/System.Runtime.dll"
-r:"D:/Unity/Unity Hub/2021.3.16f1/Editor/Data/NetStandard/compat/2.1.0/shims/netstandard/System.Runtime.Extensions.dll"
-r:"D:/Unity/Unity Hub/2021.3.16f1/Editor/Data/NetStandard/compat/2.1.0/shims/netstandard/System.Runtime.Handles.dll"
-r:"D:/Unity/Unity Hub/2021.3.16f1/Editor/Data/NetStandard/compat/2.1.0/shims/netstandard/System.Runtime.InteropServices.dll"
-r:"D:/Unity/Unity Hub/2021.3.16f1/Editor/Data/NetStandard/compat/2.1.0/shims/netstandard/System.Runtime.InteropServices.RuntimeInformation.dll"
-r:"D:/Unity/Unity Hub/2021.3.16f1/Editor/Data/NetStandard/compat/2.1.0/shims/netstandard/System.Runtime.Numerics.dll"
-r:"D:/Unity/Unity Hub/2021.3.16f1/Editor/Data/NetStandard/compat/2.1.0/shims/netstandard/System.Runtime.Serialization.Formatters.dll"
-r:"D:/Unity/Unity Hub/2021.3.16f1/Editor/Data/NetStandard/compat/2.1.0/shims/netstandard/System.Runtime.Serialization.Json.dll"
-r:"D:/Unity/Unity Hub/2021.3.16f1/Editor/Data/NetStandard/compat/2.1.0/shims/netstandard/System.Runtime.Serialization.Primitives.dll"
-r:"D:/Unity/Unity Hub/2021.3.16f1/Editor/Data/NetStandard/compat/2.1.0/shims/netstandard/System.Runtime.Serialization.Xml.dll"
-r:"D:/Unity/Unity Hub/2021.3.16f1/Editor/Data/NetStandard/compat/2.1.0/shims/netstandard/System.Security.Claims.dll"
-r:"D:/Unity/Unity Hub/2021.3.16f1/Editor/Data/NetStandard/compat/2.1.0/shims/netstandard/System.Security.Cryptography.Algorithms.dll"
-r:"D:/Unity/Unity Hub/2021.3.16f1/Editor/Data/NetStandard/compat/2.1.0/shims/netstandard/System.Security.Cryptography.Csp.dll"
-r:"D:/Unity/Unity Hub/2021.3.16f1/Editor/Data/NetStandard/compat/2.1.0/shims/netstandard/System.Security.Cryptography.Encoding.dll"
-r:"D:/Unity/Unity Hub/2021.3.16f1/Editor/Data/NetStandard/compat/2.1.0/shims/netstandard/System.Security.Cryptography.Primitives.dll"
-r:"D:/Unity/Unity Hub/2021.3.16f1/Editor/Data/NetStandard/compat/2.1.0/shims/netstandard/System.Security.Cryptography.X509Certificates.dll"
-r:"D:/Unity/Unity Hub/2021.3.16f1/Editor/Data/NetStandard/compat/2.1.0/shims/netstandard/System.Security.Principal.dll"
-r:"D:/Unity/Unity Hub/2021.3.16f1/Editor/Data/NetStandard/compat/2.1.0/shims/netstandard/System.Security.SecureString.dll"
-r:"D:/Unity/Unity Hub/2021.3.16f1/Editor/Data/NetStandard/compat/2.1.0/shims/netstandard/System.Text.Encoding.dll"
-r:"D:/Unity/Unity Hub/2021.3.16f1/Editor/Data/NetStandard/compat/2.1.0/shims/netstandard/System.Text.Encoding.Extensions.dll"
-r:"D:/Unity/Unity Hub/2021.3.16f1/Editor/Data/NetStandard/compat/2.1.0/shims/netstandard/System.Text.RegularExpressions.dll"
-r:"D:/Unity/Unity Hub/2021.3.16f1/Editor/Data/NetStandard/compat/2.1.0/shims/netstandard/System.Threading.dll"
-r:"D:/Unity/Unity Hub/2021.3.16f1/Editor/Data/NetStandard/compat/2.1.0/shims/netstandard/System.Threading.Overlapped.dll"
-r:"D:/Unity/Unity Hub/2021.3.16f1/Editor/Data/NetStandard/compat/2.1.0/shims/netstandard/System.Threading.Tasks.dll"
-r:"D:/Unity/Unity Hub/2021.3.16f1/Editor/Data/NetStandard/compat/2.1.0/shims/netstandard/System.Threading.Tasks.Extensions.dll"
-r:"D:/Unity/Unity Hub/2021.3.16f1/Editor/Data/NetStandard/compat/2.1.0/shims/netstandard/System.Threading.Tasks.Parallel.dll"
-r:"D:/Unity/Unity Hub/2021.3.16f1/Editor/Data/NetStandard/compat/2.1.0/shims/netstandard/System.Threading.Thread.dll"
-r:"D:/Unity/Unity Hub/2021.3.16f1/Editor/Data/NetStandard/compat/2.1.0/shims/netstandard/System.Threading.ThreadPool.dll"
-r:"D:/Unity/Unity Hub/2021.3.16f1/Editor/Data/NetStandard/compat/2.1.0/shims/netstandard/System.Threading.Timer.dll"
-r:"D:/Unity/Unity Hub/2021.3.16f1/Editor/Data/NetStandard/compat/2.1.0/shims/netstandard/System.ValueTuple.dll"
-r:"D:/Unity/Unity Hub/2021.3.16f1/Editor/Data/NetStandard/compat/2.1.0/shims/netstandard/System.Xml.ReaderWriter.dll"
-r:"D:/Unity/Unity Hub/2021.3.16f1/Editor/Data/NetStandard/compat/2.1.0/shims/netstandard/System.Xml.XDocument.dll"
-r:"D:/Unity/Unity Hub/2021.3.16f1/Editor/Data/NetStandard/compat/2.1.0/shims/netstandard/System.Xml.XmlDocument.dll"
-r:"D:/Unity/Unity Hub/2021.3.16f1/Editor/Data/NetStandard/compat/2.1.0/shims/netstandard/System.Xml.XmlSerializer.dll"
-r:"D:/Unity/Unity Hub/2021.3.16f1/Editor/Data/NetStandard/compat/2.1.0/shims/netstandard/System.Xml.XPath.dll"
-r:"D:/Unity/Unity Hub/2021.3.16f1/Editor/Data/NetStandard/compat/2.1.0/shims/netstandard/System.Xml.XPath.XDocument.dll"
-r:"D:/Unity/Unity Hub/2021.3.16f1/Editor/Data/NetStandard/Extensions/2.0.0/System.Runtime.InteropServices.WindowsRuntime.dll"
-r:"D:/Unity/Unity Hub/2021.3.16f1/Editor/Data/NetStandard/ref/2.1.0/netstandard.dll"
-r:"D:/Unity/Unity Hub/2021.3.16f1/Editor/Data/PlaybackEngines/AndroidPlayer/Variations/il2cpp/Managed/UnityEngine.AccessibilityModule.dll"
-r:"D:/Unity/Unity Hub/2021.3.16f1/Editor/Data/PlaybackEngines/AndroidPlayer/Variations/il2cpp/Managed/UnityEngine.AIModule.dll"
-r:"D:/Unity/Unity Hub/2021.3.16f1/Editor/Data/PlaybackEngines/AndroidPlayer/Variations/il2cpp/Managed/UnityEngine.AndroidJNIModule.dll"
-r:"D:/Unity/Unity Hub/2021.3.16f1/Editor/Data/PlaybackEngines/AndroidPlayer/Variations/il2cpp/Managed/UnityEngine.AnimationModule.dll"
-r:"D:/Unity/Unity Hub/2021.3.16f1/Editor/Data/PlaybackEngines/AndroidPlayer/Variations/il2cpp/Managed/UnityEngine.ARModule.dll"
-r:"D:/Unity/Unity Hub/2021.3.16f1/Editor/Data/PlaybackEngines/AndroidPlayer/Variations/il2cpp/Managed/UnityEngine.AssetBundleModule.dll"
-r:"D:/Unity/Unity Hub/2021.3.16f1/Editor/Data/PlaybackEngines/AndroidPlayer/Variations/il2cpp/Managed/UnityEngine.AudioModule.dll"
-r:"D:/Unity/Unity Hub/2021.3.16f1/Editor/Data/PlaybackEngines/AndroidPlayer/Variations/il2cpp/Managed/UnityEngine.ClothModule.dll"
-r:"D:/Unity/Unity Hub/2021.3.16f1/Editor/Data/PlaybackEngines/AndroidPlayer/Variations/il2cpp/Managed/UnityEngine.CoreModule.dll"
-r:"D:/Unity/Unity Hub/2021.3.16f1/Editor/Data/PlaybackEngines/AndroidPlayer/Variations/il2cpp/Managed/UnityEngine.CrashReportingModule.dll"
-r:"D:/Unity/Unity Hub/2021.3.16f1/Editor/Data/PlaybackEngines/AndroidPlayer/Variations/il2cpp/Managed/UnityEngine.DirectorModule.dll"
-r:"D:/Unity/Unity Hub/2021.3.16f1/Editor/Data/PlaybackEngines/AndroidPlayer/Variations/il2cpp/Managed/UnityEngine.dll"
-r:"D:/Unity/Unity Hub/2021.3.16f1/Editor/Data/PlaybackEngines/AndroidPlayer/Variations/il2cpp/Managed/UnityEngine.DSPGraphModule.dll"
-r:"D:/Unity/Unity Hub/2021.3.16f1/Editor/Data/PlaybackEngines/AndroidPlayer/Variations/il2cpp/Managed/UnityEngine.GameCenterModule.dll"
-r:"D:/Unity/Unity Hub/2021.3.16f1/Editor/Data/PlaybackEngines/AndroidPlayer/Variations/il2cpp/Managed/UnityEngine.GIModule.dll"
-r:"D:/Unity/Unity Hub/2021.3.16f1/Editor/Data/PlaybackEngines/AndroidPlayer/Variations/il2cpp/Managed/UnityEngine.GridModule.dll"
-r:"D:/Unity/Unity Hub/2021.3.16f1/Editor/Data/PlaybackEngines/AndroidPlayer/Variations/il2cpp/Managed/UnityEngine.HotReloadModule.dll"
-r:"D:/Unity/Unity Hub/2021.3.16f1/Editor/Data/PlaybackEngines/AndroidPlayer/Variations/il2cpp/Managed/UnityEngine.ImageConversionModule.dll"
-r:"D:/Unity/Unity Hub/2021.3.16f1/Editor/Data/PlaybackEngines/AndroidPlayer/Variations/il2cpp/Managed/UnityEngine.IMGUIModule.dll"
-r:"D:/Unity/Unity Hub/2021.3.16f1/Editor/Data/PlaybackEngines/AndroidPlayer/Variations/il2cpp/Managed/UnityEngine.InputLegacyModule.dll"
-r:"D:/Unity/Unity Hub/2021.3.16f1/Editor/Data/PlaybackEngines/AndroidPlayer/Variations/il2cpp/Managed/UnityEngine.InputModule.dll"
-r:"D:/Unity/Unity Hub/2021.3.16f1/Editor/Data/PlaybackEngines/AndroidPlayer/Variations/il2cpp/Managed/UnityEngine.JSONSerializeModule.dll"
-r:"D:/Unity/Unity Hub/2021.3.16f1/Editor/Data/PlaybackEngines/AndroidPlayer/Variations/il2cpp/Managed/UnityEngine.LocalizationModule.dll"
-r:"D:/Unity/Unity Hub/2021.3.16f1/Editor/Data/PlaybackEngines/AndroidPlayer/Variations/il2cpp/Managed/UnityEngine.ParticleSystemModule.dll"
-r:"D:/Unity/Unity Hub/2021.3.16f1/Editor/Data/PlaybackEngines/AndroidPlayer/Variations/il2cpp/Managed/UnityEngine.PerformanceReportingModule.dll"
-r:"D:/Unity/Unity Hub/2021.3.16f1/Editor/Data/PlaybackEngines/AndroidPlayer/Variations/il2cpp/Managed/UnityEngine.Physics2DModule.dll"
-r:"D:/Unity/Unity Hub/2021.3.16f1/Editor/Data/PlaybackEngines/AndroidPlayer/Variations/il2cpp/Managed/UnityEngine.PhysicsModule.dll"
-r:"D:/Unity/Unity Hub/2021.3.16f1/Editor/Data/PlaybackEngines/AndroidPlayer/Variations/il2cpp/Managed/UnityEngine.ProfilerModule.dll"
-r:"D:/Unity/Unity Hub/2021.3.16f1/Editor/Data/PlaybackEngines/AndroidPlayer/Variations/il2cpp/Managed/UnityEngine.RuntimeInitializeOnLoadManagerInitializerModule.dll"
-r:"D:/Unity/Unity Hub/2021.3.16f1/Editor/Data/PlaybackEngines/AndroidPlayer/Variations/il2cpp/Managed/UnityEngine.ScreenCaptureModule.dll"
-r:"D:/Unity/Unity Hub/2021.3.16f1/Editor/Data/PlaybackEngines/AndroidPlayer/Variations/il2cpp/Managed/UnityEngine.SharedInternalsModule.dll"
-r:"D:/Unity/Unity Hub/2021.3.16f1/Editor/Data/PlaybackEngines/AndroidPlayer/Variations/il2cpp/Managed/UnityEngine.SpriteMaskModule.dll"
-r:"D:/Unity/Unity Hub/2021.3.16f1/Editor/Data/PlaybackEngines/AndroidPlayer/Variations/il2cpp/Managed/UnityEngine.SpriteShapeModule.dll"
-r:"D:/Unity/Unity Hub/2021.3.16f1/Editor/Data/PlaybackEngines/AndroidPlayer/Variations/il2cpp/Managed/UnityEngine.StreamingModule.dll"
-r:"D:/Unity/Unity Hub/2021.3.16f1/Editor/Data/PlaybackEngines/AndroidPlayer/Variations/il2cpp/Managed/UnityEngine.SubstanceModule.dll"
-r:"D:/Unity/Unity Hub/2021.3.16f1/Editor/Data/PlaybackEngines/AndroidPlayer/Variations/il2cpp/Managed/UnityEngine.SubsystemsModule.dll"
-r:"D:/Unity/Unity Hub/2021.3.16f1/Editor/Data/PlaybackEngines/AndroidPlayer/Variations/il2cpp/Managed/UnityEngine.TerrainModule.dll"
-r:"D:/Unity/Unity Hub/2021.3.16f1/Editor/Data/PlaybackEngines/AndroidPlayer/Variations/il2cpp/Managed/UnityEngine.TerrainPhysicsModule.dll"
-r:"D:/Unity/Unity Hub/2021.3.16f1/Editor/Data/PlaybackEngines/AndroidPlayer/Variations/il2cpp/Managed/UnityEngine.TextCoreFontEngineModule.dll"
-r:"D:/Unity/Unity Hub/2021.3.16f1/Editor/Data/PlaybackEngines/AndroidPlayer/Variations/il2cpp/Managed/UnityEngine.TextCoreTextEngineModule.dll"
-r:"D:/Unity/Unity Hub/2021.3.16f1/Editor/Data/PlaybackEngines/AndroidPlayer/Variations/il2cpp/Managed/UnityEngine.TextRenderingModule.dll"
-r:"D:/Unity/Unity Hub/2021.3.16f1/Editor/Data/PlaybackEngines/AndroidPlayer/Variations/il2cpp/Managed/UnityEngine.TilemapModule.dll"
-r:"D:/Unity/Unity Hub/2021.3.16f1/Editor/Data/PlaybackEngines/AndroidPlayer/Variations/il2cpp/Managed/UnityEngine.TLSModule.dll"
-r:"D:/Unity/Unity Hub/2021.3.16f1/Editor/Data/PlaybackEngines/AndroidPlayer/Variations/il2cpp/Managed/UnityEngine.UIElementsModule.dll"
-r:"D:/Unity/Unity Hub/2021.3.16f1/Editor/Data/PlaybackEngines/AndroidPlayer/Variations/il2cpp/Managed/UnityEngine.UIElementsNativeModule.dll"
-r:"D:/Unity/Unity Hub/2021.3.16f1/Editor/Data/PlaybackEngines/AndroidPlayer/Variations/il2cpp/Managed/UnityEngine.UIModule.dll"
-r:"D:/Unity/Unity Hub/2021.3.16f1/Editor/Data/PlaybackEngines/AndroidPlayer/Variations/il2cpp/Managed/UnityEngine.UmbraModule.dll"
-r:"D:/Unity/Unity Hub/2021.3.16f1/Editor/Data/PlaybackEngines/AndroidPlayer/Variations/il2cpp/Managed/UnityEngine.UNETModule.dll"
-r:"D:/Unity/Unity Hub/2021.3.16f1/Editor/Data/PlaybackEngines/AndroidPlayer/Variations/il2cpp/Managed/UnityEngine.UnityAnalyticsCommonModule.dll"
-r:"D:/Unity/Unity Hub/2021.3.16f1/Editor/Data/PlaybackEngines/AndroidPlayer/Variations/il2cpp/Managed/UnityEngine.UnityAnalyticsModule.dll"
-r:"D:/Unity/Unity Hub/2021.3.16f1/Editor/Data/PlaybackEngines/AndroidPlayer/Variations/il2cpp/Managed/UnityEngine.UnityConnectModule.dll"
-r:"D:/Unity/Unity Hub/2021.3.16f1/Editor/Data/PlaybackEngines/AndroidPlayer/Variations/il2cpp/Managed/UnityEngine.UnityCurlModule.dll"
-r:"D:/Unity/Unity Hub/2021.3.16f1/Editor/Data/PlaybackEngines/AndroidPlayer/Variations/il2cpp/Managed/UnityEngine.UnityTestProtocolModule.dll"
-r:"D:/Unity/Unity Hub/2021.3.16f1/Editor/Data/PlaybackEngines/AndroidPlayer/Variations/il2cpp/Managed/UnityEngine.UnityWebRequestAssetBundleModule.dll"
-r:"D:/Unity/Unity Hub/2021.3.16f1/Editor/Data/PlaybackEngines/AndroidPlayer/Variations/il2cpp/Managed/UnityEngine.UnityWebRequestAudioModule.dll"
-r:"D:/Unity/Unity Hub/2021.3.16f1/Editor/Data/PlaybackEngines/AndroidPlayer/Variations/il2cpp/Managed/UnityEngine.UnityWebRequestModule.dll"
-r:"D:/Unity/Unity Hub/2021.3.16f1/Editor/Data/PlaybackEngines/AndroidPlayer/Variations/il2cpp/Managed/UnityEngine.UnityWebRequestTextureModule.dll"
-r:"D:/Unity/Unity Hub/2021.3.16f1/Editor/Data/PlaybackEngines/AndroidPlayer/Variations/il2cpp/Managed/UnityEngine.UnityWebRequestWWWModule.dll"
-r:"D:/Unity/Unity Hub/2021.3.16f1/Editor/Data/PlaybackEngines/AndroidPlayer/Variations/il2cpp/Managed/UnityEngine.VehiclesModule.dll"
-r:"D:/Unity/Unity Hub/2021.3.16f1/Editor/Data/PlaybackEngines/AndroidPlayer/Variations/il2cpp/Managed/UnityEngine.VFXModule.dll"
-r:"D:/Unity/Unity Hub/2021.3.16f1/Editor/Data/PlaybackEngines/AndroidPlayer/Variations/il2cpp/Managed/UnityEngine.VideoModule.dll"
-r:"D:/Unity/Unity Hub/2021.3.16f1/Editor/Data/PlaybackEngines/AndroidPlayer/Variations/il2cpp/Managed/UnityEngine.VRModule.dll"
-r:"D:/Unity/Unity Hub/2021.3.16f1/Editor/Data/PlaybackEngines/AndroidPlayer/Variations/il2cpp/Managed/UnityEngine.WindModule.dll"
-r:"D:/Unity/Unity Hub/2021.3.16f1/Editor/Data/PlaybackEngines/AndroidPlayer/Variations/il2cpp/Managed/UnityEngine.XRModule.dll"
-r:"Library/Bee/artifacts/1300b0aPDevDbg.dag/Unity.Burst.ref.dll"
-r:"Library/Bee/artifacts/1300b0aPDevDbg.dag/Unity.InputSystem.ref.dll"
-r:"Library/Bee/artifacts/1300b0aPDevDbg.dag/Unity.Mathematics.ref.dll"
-r:"Library/Bee/artifacts/1300b0aPDevDbg.dag/Unity.Postprocessing.Runtime.ref.dll"
-r:"Library/Bee/artifacts/1300b0aPDevDbg.dag/Unity.RenderPipeline.Universal.ShaderLibrary.ref.dll"
-r:"Library/Bee/artifacts/1300b0aPDevDbg.dag/Unity.RenderPipelines.Core.Runtime.ref.dll"
-r:"Library/Bee/artifacts/1300b0aPDevDbg.dag/Unity.RenderPipelines.Core.ShaderLibrary.ref.dll"
-r:"Library/Bee/artifacts/1300b0aPDevDbg.dag/Unity.RenderPipelines.ShaderGraph.ShaderGraphLibrary.ref.dll"
-r:"Library/Bee/artifacts/1300b0aPDevDbg.dag/Unity.RenderPipelines.Universal.Runtime.ref.dll"
-r:"Library/Bee/artifacts/1300b0aPDevDbg.dag/Unity.RenderPipelines.Universal.Shaders.ref.dll"
-r:"Library/Bee/artifacts/1300b0aPDevDbg.dag/Unity.Services.Core.Analytics.ref.dll"
-r:"Library/Bee/artifacts/1300b0aPDevDbg.dag/Unity.Services.Core.Environments.ref.dll"
-r:"Library/Bee/artifacts/1300b0aPDevDbg.dag/Unity.Services.Core.ref.dll"
-r:"Library/Bee/artifacts/1300b0aPDevDbg.dag/Unity.Subsystem.Registration.ref.dll"
-r:"Library/Bee/artifacts/1300b0aPDevDbg.dag/Unity.TextMeshPro.ref.dll"
-r:"Library/Bee/artifacts/1300b0aPDevDbg.dag/Unity.Timeline.ref.dll"
-r:"Library/Bee/artifacts/1300b0aPDevDbg.dag/Unity.VisualScripting.Core.ref.dll"
-r:"Library/Bee/artifacts/1300b0aPDevDbg.dag/Unity.VisualScripting.Flow.ref.dll"
-r:"Library/Bee/artifacts/1300b0aPDevDbg.dag/Unity.VisualScripting.State.ref.dll"
-r:"Library/Bee/artifacts/1300b0aPDevDbg.dag/Unity.XR.CoreUtils.ref.dll"
-r:"Library/Bee/artifacts/1300b0aPDevDbg.dag/Unity.XR.Interaction.Toolkit.ref.dll"
-r:"Library/Bee/artifacts/1300b0aPDevDbg.dag/Unity.XR.Management.ref.dll"
-r:"Library/Bee/artifacts/1300b0aPDevDbg.dag/Unity.XR.MockHMD.ref.dll"
-r:"Library/Bee/artifacts/1300b0aPDevDbg.dag/Unity.XR.Oculus.ref.dll"
-r:"Library/Bee/artifacts/1300b0aPDevDbg.dag/Unity.XR.OpenXR.Features.ConformanceAutomation.ref.dll"
-r:"Library/Bee/artifacts/1300b0aPDevDbg.dag/Unity.XR.OpenXR.Features.OculusQuestSupport.ref.dll"
-r:"Library/Bee/artifacts/1300b0aPDevDbg.dag/Unity.XR.OpenXR.ref.dll"
-r:"Library/Bee/artifacts/1300b0aPDevDbg.dag/UnityEngine.SpatialTracking.ref.dll"
-r:"Library/Bee/artifacts/1300b0aPDevDbg.dag/UnityEngine.UI.ref.dll"
-r:"Library/Bee/artifacts/1300b0aPDevDbg.dag/UnityEngine.XR.LegacyInputHelpers.ref.dll"
"Assets/Custom asstest/Hand.cs"
"Assets/Oculus Hands Physics/Scripts/HandPresence.cs"
"Assets/Scripts/CharacterControl.cs"
"Assets/Scripts/HandPhysics.cs"
"Assets/Scripts/HeadOpenMouth.cs"
"Assets/Scripts/MakeInjection.cs"
"Assets/Scripts/Syringe.cs"
"Assets/UniGLTF/Core/Scripts/Extensions/ArrayExtensions.cs"
"Assets/UniGLTF/Core/Scripts/Extensions/glTFExtensions.cs"
"Assets/UniGLTF/Core/Scripts/Extensions/JsonParserExtensions.cs"
"Assets/UniGLTF/Core/Scripts/Extensions/StringExtensions.cs"
"Assets/UniGLTF/Core/Scripts/Extensions/UnityExtensions.cs"
"Assets/UniGLTF/Core/Scripts/Format/BytesBuffer.cs"
"Assets/UniGLTF/Core/Scripts/Format/ExtensionsAndExtras/glTFCameraExtensions.cs"
"Assets/UniGLTF/Core/Scripts/Format/ExtensionsAndExtras/glTFExtensions.cs"
"Assets/UniGLTF/Core/Scripts/Format/ExtensionsAndExtras/glTFMesh.Primitives.extras.targetNames.cs"
"Assets/UniGLTF/Core/Scripts/Format/ExtensionsAndExtras/glTFNode.cs"
"Assets/UniGLTF/Core/Scripts/Format/ExtensionsAndExtras/KHR_draco_mesh_compression.cs"
"Assets/UniGLTF/Core/Scripts/Format/ExtensionsAndExtras/KHR_materials_unlit.cs"
"Assets/UniGLTF/Core/Scripts/Format/glbTypes.cs"
"Assets/UniGLTF/Core/Scripts/Format/glEnum.cs"
"Assets/UniGLTF/Core/Scripts/Format/glTF.cs"
"Assets/UniGLTF/Core/Scripts/Format/glTFAnimation.cs"
"Assets/UniGLTF/Core/Scripts/Format/glTFAssets.cs"
"Assets/UniGLTF/Core/Scripts/Format/glTFBuffer.cs"
"Assets/UniGLTF/Core/Scripts/Format/glTFCamera.cs"
"Assets/UniGLTF/Core/Scripts/Format/glTFMaterial.cs"
"Assets/UniGLTF/Core/Scripts/Format/glTFMesh.cs"
"Assets/UniGLTF/Core/Scripts/Format/glTFNode.cs"
"Assets/UniGLTF/Core/Scripts/Format/glTFSkin.cs"
"Assets/UniGLTF/Core/Scripts/Format/glTFTexture.cs"
"Assets/UniGLTF/Core/Scripts/Format/JsonFormatter.cs"
"Assets/UniGLTF/Core/Scripts/Format/JsonSerializableBase.cs"
"Assets/UniGLTF/Core/Scripts/Format/MonoBehaviourComparator.cs"
"Assets/UniGLTF/Core/Scripts/IO/AnimationCurveData.cs"
"Assets/UniGLTF/Core/Scripts/IO/AnimationExporter.cs"
"Assets/UniGLTF/Core/Scripts/IO/AnimationImporter.cs"
"Assets/UniGLTF/Core/Scripts/IO/AnimationKeyframeData.cs"
"Assets/UniGLTF/Core/Scripts/IO/BytesReader.cs"
"Assets/UniGLTF/Core/Scripts/IO/glbImporter.cs"
"Assets/UniGLTF/Core/Scripts/IO/gltfExporter.cs"
"Assets/UniGLTF/Core/Scripts/IO/gltfImporter.cs"
"Assets/UniGLTF/Core/Scripts/IO/ImporterContext.cs"
"Assets/UniGLTF/Core/Scripts/IO/IStorage.cs"
"Assets/UniGLTF/Core/Scripts/IO/MaterialExporter.cs"
"Assets/UniGLTF/Core/Scripts/IO/MaterialImporter.cs"
"Assets/UniGLTF/Core/Scripts/IO/MeshImporter.cs"
"Assets/UniGLTF/Core/Scripts/IO/MeshWithMaterials.cs"
"Assets/UniGLTF/Core/Scripts/IO/NodeImporter.cs"
"Assets/UniGLTF/Core/Scripts/IO/ShaderPropExporter/PreShaderPropExporter.cs"
"Assets/UniGLTF/Core/Scripts/IO/ShaderPropExporter/ShaderProps.cs"
"Assets/UniGLTF/Core/Scripts/IO/ShaderStore.cs"
"Assets/UniGLTF/Core/Scripts/IO/StaticMeshIntegrator.cs"
"Assets/UniGLTF/Core/Scripts/IO/TextureConverter.cs"
"Assets/UniGLTF/Core/Scripts/IO/TextureExportManager.cs"
"Assets/UniGLTF/Core/Scripts/IO/TextureIO.cs"
"Assets/UniGLTF/Core/Scripts/IO/TextureItem.cs"
"Assets/UniGLTF/Core/Scripts/IO/TextureLoader.cs"
"Assets/UniGLTF/Core/Scripts/IO/TextureSamplerUtil.cs"
"Assets/UniGLTF/Core/Scripts/IO/TriangleUtil.cs"
"Assets/UniGLTF/Core/Scripts/IO/UnityPath.cs"
"Assets/UniGLTF/Core/Scripts/IO/ZipArchiveStorage.cs"
"Assets/UniGLTF/Core/Scripts/PreExportShaderProps/Standard.cs"
"Assets/UniGLTF/Core/Scripts/PreExportShaderProps/UniGLTF_UniUnlit.cs"
"Assets/UniGLTF/Core/Scripts/PreExportShaderProps/Unlit_Color.cs"
"Assets/UniGLTF/Core/Scripts/PreExportShaderProps/Unlit_Texture.cs"
"Assets/UniGLTF/Core/Scripts/PreExportShaderProps/Unlit_Transparent.cs"
"Assets/UniGLTF/Core/Scripts/PreExportShaderProps/Unlit_Transparent_Cutout.cs"
"Assets/UniGLTF/Core/Scripts/UniGLTFException.cs"
"Assets/UniGLTF/Core/Scripts/UniGLTFVersion.cs"
"Assets/UniGLTF/Core/Scripts/UniGLTFVersion_partial.cs"
"Assets/UniGLTF/DepthFirstScheduler/Functor.cs"
"Assets/UniGLTF/DepthFirstScheduler/IEnumeratorExtensions.cs"
"Assets/UniGLTF/DepthFirstScheduler/LockQueue.cs"
"Assets/UniGLTF/DepthFirstScheduler/MainThreadDispatcher.cs"
"Assets/UniGLTF/DepthFirstScheduler/MonitorQueue.cs"
"Assets/UniGLTF/DepthFirstScheduler/Schedulable.cs"
"Assets/UniGLTF/DepthFirstScheduler/Scheduler.cs"
"Assets/UniGLTF/DepthFirstScheduler/Scheduler/CurrentThreadScheduler.cs"
"Assets/UniGLTF/DepthFirstScheduler/Scheduler/StepScheduler.cs"
"Assets/UniGLTF/DepthFirstScheduler/Scheduler/ThreadPoolScheduler.cs"
"Assets/UniGLTF/DepthFirstScheduler/Scheduler/ThreadScheduler.cs"
"Assets/UniGLTF/DepthFirstScheduler/TaskChain.cs"
"Assets/UniGLTF/DepthFirstScheduler/Unit.cs"
"Assets/UniGLTF/UniHumanoid/PoseModifier/HandPose.cs"
"Assets/UniGLTF/UniHumanoid/PoseModifier/HandRig.cs"
"Assets/UniGLTF/UniHumanoid/PoseModifier/IPoseModifier.cs"
"Assets/UniGLTF/UniHumanoid/Scenes/HumanBuilderTest.cs"
"Assets/UniGLTF/UniHumanoid/Scenes/RuntimeBvhLoader.cs"
"Assets/UniGLTF/UniHumanoid/Scripts/AnimationClipUtility.cs"
"Assets/UniGLTF/UniHumanoid/Scripts/AvatarDescription.cs"
"Assets/UniGLTF/UniHumanoid/Scripts/BoneGizmoDrawer.cs"
"Assets/UniGLTF/UniHumanoid/Scripts/BoneMapping.cs"
"Assets/UniGLTF/UniHumanoid/Scripts/BvhBone.cs"
"Assets/UniGLTF/UniHumanoid/Scripts/Format/Bvh.cs"
"Assets/UniGLTF/UniHumanoid/Scripts/HumanPoseClip.cs"
"Assets/UniGLTF/UniHumanoid/Scripts/HumanPoseTransfer.cs"
"Assets/UniGLTF/UniHumanoid/Scripts/IBone.cs"
"Assets/UniGLTF/UniHumanoid/Scripts/IO/BvhAnimationClip.cs"
"Assets/UniGLTF/UniHumanoid/Scripts/IO/BvhImporter.cs"
"Assets/UniGLTF/UniHumanoid/Scripts/IO/Extensions/BvhExtensions.cs"
"Assets/UniGLTF/UniHumanoid/Scripts/IO/Extensions/UnityExtensions.cs"
"Assets/UniGLTF/UniHumanoid/Scripts/IO/ImporterContext.cs"
"Assets/UniGLTF/UniHumanoid/Scripts/MuscleDebug.cs"
"Assets/UniGLTF/UniHumanoid/Scripts/MuscleInspector.cs"
"Assets/UniGLTF/UniHumanoid/Scripts/Skeleton.cs"
"Assets/UniGLTF/UniHumanoid/Scripts/SkeletonEstimator.cs"
"Assets/UniGLTF/UniHumanoid/Scripts/SkeletonMeshUtility.cs"
"Assets/UniGLTF/UniJSON/Scripts/ActionDisposer.cs"
"Assets/UniGLTF/UniJSON/Scripts/Extensions/ArraySegmentExtensions.cs"
"Assets/UniGLTF/UniJSON/Scripts/Extensions/ByteExtensions.cs"
"Assets/UniGLTF/UniJSON/Scripts/Extensions/EnumExtensions.cs"
"Assets/UniGLTF/UniJSON/Scripts/Extensions/ObjectExtensions.cs"
"Assets/UniGLTF/UniJSON/Scripts/Extensions/StringExtensions.cs"
"Assets/UniGLTF/UniJSON/Scripts/Extensions/TypeExtensions.cs"
"Assets/UniGLTF/UniJSON/Scripts/FormatterExtensions.cs"
"Assets/UniGLTF/UniJSON/Scripts/IFileSystemAccessor.cs"
"Assets/UniGLTF/UniJSON/Scripts/IFormatter.cs"
"Assets/UniGLTF/UniJSON/Scripts/IStore/BytesStore.cs"
"Assets/UniGLTF/UniJSON/Scripts/IStore/ByteUnion.cs"
"Assets/UniGLTF/UniJSON/Scripts/IStore/IStore.cs"
"Assets/UniGLTF/UniJSON/Scripts/IStore/StreamStore.cs"
"Assets/UniGLTF/UniJSON/Scripts/IStore/StringBuilderStore.cs"
"Assets/UniGLTF/UniJSON/Scripts/IValueNode.cs"
"Assets/UniGLTF/UniJSON/Scripts/Json/Exceptions.cs"
"Assets/UniGLTF/UniJSON/Scripts/Json/JsonFormatter.cs"
"Assets/UniGLTF/UniJSON/Scripts/Json/JsonNode.cs"
"Assets/UniGLTF/UniJSON/Scripts/Json/JsonParser.cs"
"Assets/UniGLTF/UniJSON/Scripts/Json/JsonSchema.cs"
"Assets/UniGLTF/UniJSON/Scripts/Json/JsonSchemaAttribute.cs"
"Assets/UniGLTF/UniJSON/Scripts/Json/JsonString.cs"
"Assets/UniGLTF/UniJSON/Scripts/Json/JsonValue.cs"
"Assets/UniGLTF/UniJSON/Scripts/Json/SimpleJSON.cs"
"Assets/UniGLTF/UniJSON/Scripts/JsonSchemaValidator/IJsonSchemaValidator.cs"
"Assets/UniGLTF/UniJSON/Scripts/JsonSchemaValidator/JsonArrayValidator.cs"
"Assets/UniGLTF/UniJSON/Scripts/JsonSchemaValidator/JsonBoolValidator.cs"
"Assets/UniGLTF/UniJSON/Scripts/JsonSchemaValidator/JsonDictionaryValidator.cs"
"Assets/UniGLTF/UniJSON/Scripts/JsonSchemaValidator/JsonEnumValidator.cs"
"Assets/UniGLTF/UniJSON/Scripts/JsonSchemaValidator/JsonNumberValidator.cs"
"Assets/UniGLTF/UniJSON/Scripts/JsonSchemaValidator/JsonObjectValidator.cs"
"Assets/UniGLTF/UniJSON/Scripts/JsonSchemaValidator/JsonSchemaValidator.cs"
"Assets/UniGLTF/UniJSON/Scripts/JsonSchemaValidator/JsonSchemaValidatorFactory.cs"
"Assets/UniGLTF/UniJSON/Scripts/JsonSchemaValidator/JsonStringValidator.cs"
"Assets/UniGLTF/UniJSON/Scripts/MsgPack/EndianConverter.cs"
"Assets/UniGLTF/UniJSON/Scripts/MsgPack/Exceptions.cs"
"Assets/UniGLTF/UniJSON/Scripts/MsgPack/MsgPackFormatter.cs"
"Assets/UniGLTF/UniJSON/Scripts/MsgPack/MsgPackNode.cs"
"Assets/UniGLTF/UniJSON/Scripts/MsgPack/MsgPackParser.cs"
"Assets/UniGLTF/UniJSON/Scripts/MsgPack/MsgPackType.cs"
"Assets/UniGLTF/UniJSON/Scripts/MsgPack/MsgPackTypeExtensions.cs"
"Assets/UniGLTF/UniJSON/Scripts/MsgPack/MsgPackValue.cs"
"Assets/UniGLTF/UniJSON/Scripts/StringSegment.cs"
"Assets/UniGLTF/UniUnlit/Scripts/Utils.cs"
-langversion:9.0

/deterministic
/optimize-
/debug:portable
/nologo
/RuntimeMetadataVersion:v4.0.30319

/nowarn:0169
/nowarn:0649
/nowarn:1701
/nowarn:1702
/utf8output
/preferreduilang:en-US


/additionalfile:"Library/Bee/artifacts/1300b0aPDevDbg.dag/Assembly-CSharp.AdditionalFile.txt"